I
1050 Generated by WorldEditor 2.1.0r1

1     89 0 0 CYCD Nanaimo
100 45.72 1 0 0.25 0 2 1 16  49.06361598 -123.86996185   60    0 2 11 0 0 34  49.04552602 -123.87037407  304    0 2 0 0 0
110 3 0.00 0.0000 New Taxiway 4
111  49.04982495 -123.87293212
111  49.05015172 -123.87293325
111  49.05015150 -123.87402663
111  49.04996288 -123.87402605
111  49.04995911 -123.87441226
113  49.04981119 -123.87441011
111  49.04994370 -123.87368375
111  49.04985846 -123.87368023
111  49.04985810 -123.87380459
113  49.04994133 -123.87380579
110 2 0.00 0.0000 New Taxiway 22
111  49.04614919 -123.87334085
111  49.04602240 -123.87314743
111  49.04617455 -123.87290951
111  49.04617703 -123.87291331
111  49.04630260 -123.87310487
113  49.04628272 -123.87313539
110 2 0.00 0.0000 New Taxiway 21
111  49.04630767 -123.87364067
111  49.04619230 -123.87346658
111  49.04634317 -123.87322673
113  49.04646235 -123.87340469
110 2 0.00 0.0000 New Taxiway 19
111  49.04718484 -123.87359355
111  49.04718484 -123.87344386
111  49.04721172 -123.87344368
111  49.04726100 -123.87344335
111  49.04731502 -123.87344298
111  49.04735432 -123.87344272
111  49.04740107 -123.87344241
113  49.04740107 -123.87359500
110 2 0.00 0.0000 New Taxiway 18
111  49.04724620 -123.87394214
111  49.04724552 -123.87370560
111  49.04724548 -123.87369101
111  49.04739506 -123.87369319
113  49.04739577 -123.87394323
110 2 0.00 0.0000 New Taxiway 16
111  49.04842020 -123.87392026
111  49.04824777 -123.87391832
111  49.04824651 -123.87348293
113  49.04842147 -123.87348310
110 2 0.00 0.0000 New Taxiway 15
111  49.04902243 -123.87432261
111  49.04889058 -123.87432067
111  49.04889063 -123.87428371
111  49.04889070 -123.87423728
111  49.04889076 -123.87419520
111  49.04889080 -123.87414532
111  49.04889093 -123.87402203
111  49.04889102 -123.87397120
111  49.04889118 -123.87385534
111  49.04889129 -123.87380797
111  49.04889145 -123.87368891
111  49.04889154 -123.87363286
111  49.04889162 -123.87352490
111  49.04889175 -123.87346701
111  49.04889185 -123.87339604
111  49.04902117 -123.87339604
111  49.04902205 -123.87404082
111  49.04902215 -123.87411134
111  49.04902228 -123.87421021
113  49.04902237 -123.87428125
110 2 0.00 0.0000 New Taxiway 13
111  49.05022598 -123.87410291
111  49.05022623 -123.87366419
111  49.05045356 -123.87366419
113  49.05045356 -123.87409615
110 2 0.00 0.0000 New Taxiway 9
111  49.05492127 -123.87430232
111  49.05476702 -123.87429916
111  49.05476698 -123.87426117
111  49.05476694 -123.87421626
111  49.05476684 -123.87409592
111  49.05476680 -123.87405465
111  49.05476668 -123.87392117
111  49.05476664 -123.87388179
111  49.05476654 -123.87376696
111  49.05476651 -123.87373017
111  49.05476638 -123.87359298
111  49.05476634 -123.87354853
111  49.05476623 -123.87341936
111  49.05476619 -123.87337924
111  49.05476612 -123.87329675
111  49.05492027 -123.87329963
111  49.05492043 -123.87345897
111  49.05492046 -123.87350382
111  49.05492059 -123.87362106
111  49.05492066 -123.87366931
111  49.05492078 -123.87379574
111  49.05492081 -123.87383865
111  49.05492093 -123.87396605
111  49.05492098 -123.87400733
111  49.05492110 -123.87413459
113  49.05492114 -123.87417552
110 2 0.00 0.0000 New Taxiway 8
111  49.05520085 -123.87430281
111  49.05504877 -123.87430422
111  49.05504827 -123.87329110
111  49.05519120 -123.87328827
111  49.05519198 -123.87337043
111  49.05519242 -123.87341600
111  49.05519356 -123.87353680
111  49.05519397 -123.87357932
111  49.05519530 -123.87371985
111  49.05519578 -123.87377032
111  49.05519655 -123.87385112
111  49.05519713 -123.87391234
111  49.05519820 -123.87402485
111  49.05519879 -123.87408700
111  49.05519986 -123.87419951
113  49.05520043 -123.87425920
110 2 0.00 0.0000 New Taxiway 7
111  49.05576950 -123.87418241
111  49.05563770 -123.87418137
111  49.05563757 -123.87406734
111  49.05563752 -123.87402066
111  49.05563739 -123.87389957
111  49.05563737 -123.87384670
111  49.05563720 -123.87373783
111  49.05563706 -123.87368432
111  49.05563703 -123.87356392
111  49.05563698 -123.87351667
111  49.05563685 -123.87339342
111  49.05563673 -123.87326845
111  49.05563671 -123.87326274
111  49.05576850 -123.87326274
111  49.05576868 -123.87341593
111  49.05576872 -123.87346600
111  49.05576885 -123.87357833
111  49.05576891 -123.87362987
111  49.05576896 -123.87375189
111  49.05576909 -123.87380335
111  49.05576922 -123.87392608
111  49.05576924 -123.87396670
111  49.05576931 -123.87409026
113  49.05576945 -123.87413551
110 2 0.00 0.0000 New Taxiway 6
111  49.05605731 -123.87417094
111  49.05590627 -123.87417198
111  49.05590626 -123.87414586
111  49.05590625 -123.87408973
111  49.05590618 -123.87397184
111  49.05590616 -123.87391891
111  49.05590611 -123.87379805
111  49.05590609 -123.87374847
111  49.05590601 -123.87362956
111  49.05590599 -123.87357882
111  49.05590596 -123.87346083
111  49.05590594 -123.87340776
111  49.05590587 -123.87324291
111  49.05605622 -123.87324291
111  49.05605622 -123.87326357
111  49.05605634 -123.87337348
111  49.05605650 -123.87348184
111  49.05605649 -123.87354230
111  49.05605670 -123.87365179
111  49.05605671 -123.87371776
111  49.05605690 -123.87382210
111  49.05605698 -123.87388508
111  49.05605710 -123.87398660
113  49.05605724 -123.87405231
110 2 0.00 0.0000 New Taxiway 43
111  49.05749656 -123.87381791
111  49.05749744 -123.87349164
111  49.05773591 -123.87349431
113  49.05773501 -123.87381252
110 2 0.00 0.0000 New Taxiway 1
111  49.04876298 -123.87433246
111  49.04862741 -123.87433334
111  49.04862734 -123.87429237
111  49.04862743 -123.87421840
111  49.04862726 -123.87412058
111  49.04862714 -123.87406057
111  49.04862689 -123.87395775
111  49.04862686 -123.87389167
111  49.04862663 -123.87378325
111  49.04862652 -123.87371457
111  49.04862639 -123.87361277
111  49.04862622 -123.87353636
111  49.04862596 -123.87338945
111  49.04876146 -123.87339112
111  49.04876140 -123.87346475
111  49.04876153 -123.87353238
111  49.04876160 -123.87363351
111  49.04876170 -123.87380730
111  49.04876173 -123.87385682
111  49.04876182 -123.87397122
111  49.04876183 -123.87402178
111  49.04876259 -123.87414049
111  49.04876264 -123.87419521
111  49.04876287 -123.87424510
113  49.04876298 -123.87429450
110 1 0.00 0.0000 New Taxiway 2
111  49.05754569 -123.87265854 20
111  49.05754415 -123.87310707
112  49.05758879 -123.87321350  49.05764162 -123.87321746
111  49.05758879 -123.87321350
111  49.05790316 -123.87320998
111  49.05790263 -123.87375202
111  49.05799469 -123.87402448
111  49.05781057 -123.87414155
112  49.05781057 -123.87414155  49.05776293 -123.87418384
111  49.05777291 -123.87421179
111  49.05777430 -123.87426926
112  49.05781615 -123.87437356  49.05786552 -123.87437752
111  49.05781615 -123.87437356
111  49.05765713 -123.87437782
112  49.05765713 -123.87437782  49.05770910 -123.87431438
111  49.05769850 -123.87425252
112  49.05765155 -123.87413516  49.05759786 -123.87413516
111  49.05765155 -123.87413516
111  49.05728524 -123.87413971
111  49.05728240 -123.87348324
111  49.05747301 -123.87348382
111  49.05747282 -123.87310833 20
113  49.05747263 -123.87266020
111  49.05773590 -123.87349431
111  49.05749744 -123.87349162
111  49.05749656 -123.87381791
113  49.05773502 -123.87381254
110 1 0.00 0.0000 New Taxiway 3
111  49.05585287 -123.87279682
111  49.05585637 -123.87340806
111  49.05590593 -123.87340774
111  49.05590597 -123.87346077
111  49.05585644 -123.87346083
111  49.05585658 -123.87357880
111  49.05590599 -123.87357882
111  49.05590604 -123.87362953
111  49.05585664 -123.87362950
111  49.05585678 -123.87374850
111  49.05590608 -123.87374846
111  49.05590611 -123.87379815
111  49.05585684 -123.87379817
111  49.05585699 -123.87391924
111  49.05590615 -123.87391908
111  49.05590618 -123.87397177
111  49.05585705 -123.87397202
111  49.05585719 -123.87408928
111  49.05590624 -123.87408974
111  49.05590620 -123.87414593
111  49.05582476 -123.87414590
111  49.05582459 -123.87413553
111  49.05576945 -123.87413553
111  49.05576932 -123.87409025
111  49.05582264 -123.87409037
111  49.05582263 -123.87396685
111  49.05576924 -123.87396670
111  49.05576933 -123.87392614
111  49.05582072 -123.87392606
111  49.05582074 -123.87380439
111  49.05576915 -123.87380413
111  49.05576896 -123.87375188
111  49.05581667 -123.87375163
111  49.05581635 -123.87363003
111  49.05576892 -123.87362988
111  49.05576886 -123.87357834
111  49.05581655 -123.87357839
111  49.05581672 -123.87346646
111  49.05576874 -123.87346600
111  49.05576871 -123.87341607
111  49.05581622 -123.87341636
111  49.05581574 -123.87279784
111  49.05577059 -123.87269693
113  49.05587812 -123.87269462
110 1 0.00 0.0000 New Taxiway 2
111  49.04762667 -123.87341698
111  49.04763098 -123.87297204
111  49.04760979 -123.87293009
111  49.04768987 -123.87292821
111  49.04766734 -123.87297305
111  49.04766646 -123.87316696
111  49.04772603 -123.87316640
111  49.04772610 -123.87312874
111  49.04779139 -123.87312973
111  49.04779333 -123.87345500
111  49.04772083 -123.87345405
111  49.04772055 -123.87341846
113  49.04767119 -123.87341699
110 1 0.00 0.0000 New Taxiway 45
111  49.04651282 -123.87310464
111  49.04651347 -123.87337127
111  49.04647451 -123.87342303
111  49.04646236 -123.87340469
111  49.04634315 -123.87322672
111  49.04628274 -123.87313538
111  49.04630260 -123.87310486
111  49.04617704 -123.87291332
111  49.04628192 -123.87275153
111  49.04637333 -123.87288985
112  49.04644364 -123.87290567  49.04646784 -123.87287050
111  49.04644364 -123.87290567
111  49.04655492 -123.87273870
111  49.04664460 -123.87287400
111  49.04660989 -123.87293226
111  49.04669306 -123.87298865
111  49.04672128 -123.87293142
112  49.04672128 -123.87293142  49.04684422 -123.87294807
111  49.04684425 -123.87294820
111  49.04684051 -123.87324240
111  49.04683914 -123.87343180
111  49.04683738 -123.87367688
111  49.04653321 -123.87367500
111  49.04656642 -123.87319894
111  49.04667249 -123.87320194
112  49.04667249 -123.87320194  49.04671082 -123.87319544
111  49.04667630 -123.87309328
113  49.04657049 -123.87301793
110 1 0.00 0.0000 New Taxiway 11
111  49.05340403 -123.87458228
111  49.05337533 -123.87458252
111  49.05337520 -123.87425800
111  49.05334538 -123.87425766
111  49.05334540 -123.87413996
111  49.05334353 -123.87392382
111  49.05340869 -123.87392397
111  49.05341011 -123.87430157
111  49.05347193 -123.87444157
111  49.05347388 -123.87460342
113  49.05340412 -123.87460250
110 1 0.00 0.0000 New Taxiway 4
111  49.05554154 -123.87409215
111  49.05554100 -123.87280801
111  49.05550461 -123.87270267
111  49.05560778 -123.87270046
111  49.05558300 -123.87280563
111  49.05558325 -123.87326828
111  49.05563673 -123.87326848
111  49.05563685 -123.87339343
111  49.05558332 -123.87339345
111  49.05558339 -123.87351628
111  49.05563697 -123.87351652
111  49.05563703 -123.87356391
111  49.05558341 -123.87356371
111  49.05558348 -123.87368422
111  49.05563706 -123.87368433
111  49.05563721 -123.87373784
111  49.05558351 -123.87373786
111  49.05558357 -123.87384670
111  49.05563736 -123.87384665
111  49.05563738 -123.87389956
111  49.05558386 -123.87389957
111  49.05558366 -123.87402085
111  49.05563752 -123.87402064
111  49.05563757 -123.87406735
111  49.05558369 -123.87406750
113  49.05558370 -123.87409199
110 1 0.00 0.0000 New Taxiway 2
111  49.05614669 -123.87428939
111  49.05610627 -123.87428991
111  49.05610622 -123.87405245
111  49.05605724 -123.87405230
111  49.05605710 -123.87398664
111  49.05610173 -123.87398692
111  49.05610149 -123.87388523
111  49.05605700 -123.87388509
111  49.05605688 -123.87382209
111  49.05610064 -123.87382200
111  49.05610082 -123.87371775
111  49.05605671 -123.87371778
111  49.05605670 -123.87365178
111  49.05610102 -123.87365159
111  49.05610103 -123.87354236
111  49.05605649 -123.87354230
111  49.05605650 -123.87348185
111  49.05610054 -123.87348165
111  49.05610044 -123.87337342
111  49.05605633 -123.87337348
111  49.05605622 -123.87326357
111  49.05608772 -123.87326346
111  49.05608959 -123.87269008
113  49.05614855 -123.87268870
110 1 0.25 0.0000 New Taxiway 1
111  49.05997177 -123.86826589 53
111  49.05951153 -123.86899013
111  49.05930973 -123.86930767
111  49.05916192 -123.86959004
112  49.05916192 -123.86959004  49.05914122 -123.86964239
111  49.05927144 -123.86975109
111  49.05887530 -123.86976103
111  49.05944544 -123.86888949 53
111  49.05952578 -123.86876235 53
111  49.05956418 -123.86862136 53
111  49.05951396 -123.86855134 53
113  49.05963599 -123.86815705 53
110 2 0.00 0.0000 New Taxiway 11
111  49.05441095 -123.87422610
111  49.05424453 -123.87422649
111  49.05424451 -123.87376197
113  49.05441159 -123.87376175
110 1 0.00 0.0000 New Taxiway 4
111  49.05353677 -123.87249029 53 102
111  49.05436270 -123.87118891 53 102
111  49.05455532 -123.87088504 53 102
112  49.05459454 -123.87076705  49.05461347 -123.87067048 53 102
111  49.05458446 -123.87047674
111  49.05511860 -123.87046021 53 102
111  49.05451073 -123.87140532 53 102
111  49.05404138 -123.87214305 53 102
112  49.05417303 -123.87248677  49.05442566 -123.87253873
113  49.05417303 -123.87248677
110 2 0.00 0.0000 New Taxiway 42
111  49.05388734 -123.87308017
111  49.05397586 -123.87320284
111  49.05403691 -123.87329861
111  49.05416844 -123.87329796
111  49.05416790 -123.87350864
111  49.05403732 -123.87350810
113  49.05389133 -123.87371972
110 1 0.00 0.0000 Main Taxiway
111  49.06345971 -123.87121075 53 102
111  49.06345894 -123.87100371 53 102
111  49.06345823 -123.87081485
112  49.06345823 -123.87081485  49.06340975 -123.87025285 53 102
111  49.06307695 -123.87028816
111  49.06361313 -123.86964902
111  49.06387301 -123.86964305
111  49.06387716 -123.87027239
111  49.06361854 -123.87027535 53 102
111  49.06361944 -123.87100219 53 102
111  49.06362154 -123.87126137 53 102
112  49.06359645 -123.87142129  49.06357889 -123.87150761
111  49.06359645 -123.87142129
112  49.06359645 -123.87142129  49.06358168 -123.87149392 53 102
112  49.06352933 -123.87162989  49.06349886 -123.87168424
111  49.06352933 -123.87162989 53 102
111  49.06308158 -123.87234802
112  49.06308158 -123.87234802  49.06297785 -123.87251336 53 102
111  49.06279149 -123.87254553 53 102
111  49.05754569 -123.87265853 102
111  49.05747263 -123.87266021 53 102
111  49.05614854 -123.87268869 102
111  49.05608961 -123.87269009 53 102
111  49.05587812 -123.87269462 102
111  49.05577056 -123.87269694 53 102
111  49.05560777 -123.87270046 102
111  49.05550462 -123.87270268 53 102
111  49.05530075 -123.87270708 102
111  49.05519811 -123.87270929 53 102
111  49.05502358 -123.87271305 102
111  49.05491699 -123.87271535 53 102
111  49.05474781 -123.87271900 102
111  49.05464710 -123.87272117 53 102
111  49.05401014 -123.87273491
112  49.05401014 -123.87273491  49.05388060 -123.87274363 53 102
111  49.05388637 -123.87293236 102
111  49.05388735 -123.87308011
111  49.05397586 -123.87320282
111  49.05456718 -123.87320103
111  49.05456636 -123.87434125
111  49.05381204 -123.87433866
111  49.05381178 -123.87430708
111  49.05381035 -123.87413525
111  49.05376647 -123.87413525
111  49.05376647 -123.87411208
111  49.05375297 -123.87411208
111  49.05375098 -123.87392481
111  49.05366045 -123.87392459
111  49.05340869 -123.87392396
111  49.05334353 -123.87392380
111  49.05324601 -123.87392356
111  49.05320025 -123.87392344
111  49.05316417 -123.87392335
111  49.05311421 -123.87392323
111  49.05308460 -123.87392316
111  49.05300165 -123.87392295
111  49.05293452 -123.87392278
111  49.05293612 -123.87413812
111  49.05293621 -123.87415069
111  49.05274073 -123.87415022
111  49.05274046 -123.87436217
111  49.05275552 -123.87436202
111  49.05275610 -123.87467217
111  49.05265208 -123.87467021
111  49.05261012 -123.87474940
111  49.05253178 -123.87475198
111  49.05253234 -123.87450739
111  49.05252918 -123.87396255
111  49.05236699 -123.87396034
111  49.05236752 -123.87290447
112  49.05236752 -123.87290447  49.05236609 -123.87283459 102
111  49.05227088 -123.87281341 102
111  49.05037448 -123.87286109 102
111  49.05025293 -123.87286416 102
111  49.04982751 -123.87287496 102
111  49.04947078 -123.87288407 102
111  49.04911459 -123.87289295 102
111  49.04903241 -123.87289499 102
111  49.04886187 -123.87289932 102
111  49.04876831 -123.87290165 102
111  49.04859937 -123.87290587 102
111  49.04850699 -123.87290817 102
111  49.04835214 -123.87291199 102
111  49.04828484 -123.87291413 102
111  49.04805951 -123.87291946 102
111  49.04795011 -123.87292205 102
111  49.04768985 -123.87292821 102
111  49.04760980 -123.87293010 102
111  49.04743797 -123.87293417 102
111  49.04737262 -123.87293571 102
111  49.04714700 -123.87294104 102
111  49.04707273 -123.87294280 102
111  49.04684426 -123.87294820
112  49.04684426 -123.87294820  49.04672090 -123.87293127 102
112  49.04672128 -123.87293143  49.04659758 -123.87291473
111  49.04672128 -123.87293143
112  49.04672128 -123.87293143  49.04664487 -123.87287441 102
111  49.04664460 -123.87287398 102
111  49.04655491 -123.87273870 102
111  49.04581795 -123.87162507 102
111  49.04560835 -123.87130942
112  49.04560835 -123.87130942  49.04552963 -123.87119626 102
111  49.04553833 -123.87112369 102
111  49.04552875 -123.87068774
111  49.04525897 -123.87069260
111  49.04525191 -123.87006783
111  49.04552126 -123.87006077
111  49.04597780 -123.87067598 102
111  49.04581416 -123.87097222 102
111  49.04581622 -123.87112013 102
111  49.04587312 -123.87124650 102
111  49.04596581 -123.87138595 102
111  49.04674013 -123.87255087 102
112  49.04688874 -123.87262561  49.04697047 -123.87261283
111  49.04688874 -123.87262561 102
111  49.05353678 -123.87249030
111  49.05417304 -123.87248676 53 102
111  49.06273445 -123.87230785 53 102
112  49.06297598 -123.87216075  49.06305551 -123.87202003
111  49.06297598 -123.87216075 53 102
111  49.06337477 -123.87153361
114  49.06337477 -123.87153361  49.06345444 -123.87141070 53 102
111  49.05441160 -123.87376175
111  49.05424453 -123.87376198
111  49.05424453 -123.87422650
113  49.05441094 -123.87422612
111  49.05345791 -123.87347676
111  49.05329242 -123.87347716
111  49.05329588 -123.87373320
113  49.05345959 -123.87373087
111  49.05416844 -123.87329796
111  49.05403692 -123.87329862
111  49.05397585 -123.87320282
111  49.05388735 -123.87308017
111  49.05389134 -123.87371974
111  49.05403734 -123.87350809
113  49.05416790 -123.87350863
110 2 0.00 0.0000 New Taxiway 34
111  49.05366142 -123.87411120
111  49.05366046 -123.87392460
111  49.05375096 -123.87392483
113  49.05375299 -123.87411209
110 2 0.00 0.0000 New Taxiway 38
111  49.05345960 -123.87373089
111  49.05329587 -123.87373320
111  49.05329242 -123.87347717
113  49.05345791 -123.87347677
110 1 0.00 0.0000 New Taxiway 1
111  49.04910593 -123.87431715
111  49.04906763 -123.87431827
111  49.04906724 -123.87428062
111  49.04902237 -123.87428121
111  49.04902227 -123.87421021
111  49.04906651 -123.87420897
111  49.04906551 -123.87411114
111  49.04902216 -123.87411138
111  49.04902204 -123.87404085
111  49.04906478 -123.87404088
111  49.04906381 -123.87394597
111  49.04902251 -123.87394619
111  49.04902229 -123.87388271
111  49.04906316 -123.87388262
111  49.04906218 -123.87378678
111  49.04902223 -123.87378626
111  49.04902244 -123.87371269
111  49.04906140 -123.87371133
111  49.04906033 -123.87360645
111  49.04902167 -123.87360660
111  49.04902151 -123.87354634
111  49.04905970 -123.87354474
111  49.04905817 -123.87339559
111  49.04905363 -123.87295286
111  49.04903242 -123.87289501
111  49.04911457 -123.87289294
113  49.04909635 -123.87295061
110 1 0.00 0.0000 New Taxiway 1
111  49.04884906 -123.87438422
111  49.04880546 -123.87438323
111  49.04880489 -123.87429495
111  49.04876298 -123.87429451
111  49.04876287 -123.87424511
111  49.04880459 -123.87424561
111  49.04880425 -123.87419518
111  49.04876263 -123.87419524
111  49.04876259 -123.87414052
111  49.04880390 -123.87414043
111  49.04880313 -123.87402182
111  49.04876183 -123.87402167
111  49.04876181 -123.87397121
111  49.04880273 -123.87397121
111  49.04880197 -123.87385704
111  49.04876172 -123.87385683
111  49.04876171 -123.87380731
111  49.04880164 -123.87380740
111  49.04880089 -123.87369421
111  49.04876160 -123.87369428
111  49.04876160 -123.87363359
111  49.04880049 -123.87363365
111  49.04879982 -123.87353238
111  49.04876152 -123.87353237
111  49.04876140 -123.87346474
111  49.04879938 -123.87346487
111  49.04879600 -123.87295629
111  49.04876831 -123.87290162
111  49.04886188 -123.87289931
111  49.04883958 -123.87295478
111  49.04884223 -123.87339319
111  49.04884267 -123.87346686
111  49.04889175 -123.87346702
111  49.04889162 -123.87352491
111  49.04884302 -123.87352444
111  49.04884367 -123.87363265
111  49.04889153 -123.87363288
111  49.04889145 -123.87368890
111  49.04884401 -123.87368926
111  49.04884473 -123.87380798
111  49.04889129 -123.87380795
111  49.04889118 -123.87385534
111  49.04884502 -123.87385546
111  49.04884571 -123.87397109
111  49.04889103 -123.87397117
111  49.04889092 -123.87402201
111  49.04884602 -123.87402184
111  49.04884700 -123.87414499
111  49.04889081 -123.87414530
111  49.04889075 -123.87419521
111  49.04884747 -123.87419482
111  49.04884744 -123.87423758
111  49.04889070 -123.87423729
111  49.04889062 -123.87428369
113  49.04884804 -123.87428395
110 1 0.00 0.0000 New Taxiway 48
111  49.05022643 -123.87366372
111  49.05022643 -123.87331939
111  49.05028320 -123.87325594
111  49.05028320 -123.87294063
111  49.05025292 -123.87286418
111  49.05037446 -123.87286110
111  49.05033936 -123.87294072
111  49.05034026 -123.87326174
111  49.05039858 -123.87336040
111  49.05045308 -123.87336004
113  49.05045336 -123.87366411
110 1 0.00 0.0000 New Taxiway 47
111  49.04859940 -123.87290583
111  49.04857223 -123.87295186
111  49.04857145 -123.87353690
111  49.04862622 -123.87353635
111  49.04862639 -123.87361276
111  49.04857615 -123.87361333
111  49.04857615 -123.87371482
111  49.04862652 -123.87371456
111  49.04862664 -123.87378327
111  49.04857571 -123.87378277
111  49.04857535 -123.87389213
111  49.04862686 -123.87389167
111  49.04862688 -123.87395776
111  49.04857509 -123.87395833
111  49.04857553 -123.87406131
111  49.04862713 -123.87406058
111  49.04862725 -123.87412056
111  49.04857666 -123.87412053
111  49.04857666 -123.87421837
111  49.04862743 -123.87421840
111  49.04862733 -123.87429242
111  49.04857577 -123.87429229
111  49.04857599 -123.87432440
111  49.04852975 -123.87432440
111  49.04852975 -123.87405592
111  49.04842681 -123.87405617
111  49.04842512 -123.87413598
111  49.04825468 -123.87414370
111  49.04825300 -123.87399437
111  49.04847073 -123.87399180
112  49.04847073 -123.87399180  49.04853638 -123.87398999
111  49.04852811 -123.87391456
111  49.04852950 -123.87295270
113  49.04850698 -123.87290819
110 1 0.00 0.0000 New Taxiway 46
111  49.04824043 -123.87348327
111  49.04824041 -123.87325209
111  49.04828549 -123.87325209
111  49.04828483 -123.87291413
111  49.04835213 -123.87291201
111  49.04835234 -123.87325664
111  49.04841228 -123.87325737
111  49.04841194 -123.87348309
111  49.04842148 -123.87348311
111  49.04841196 -123.87348314
113  49.04824638 -123.87348361
110 5 0.00 0.0000 New Taxiway 7
111  49.04687997 -123.87449141
111  49.04664808 -123.87421803
111  49.04679798 -123.87421624
111  49.04679480 -123.87381990
111  49.04684345 -123.87381969
111  49.04684327 -123.87370103
111  49.04683743 -123.87370092
111  49.04683739 -123.87367689
111  49.04695258 -123.87366233
111  49.04699825 -123.87351403
111  49.04697366 -123.87344613
111  49.04688933 -123.87342647
112  49.04688933 -123.87342647  49.04685491 -123.87341980
111  49.04683914 -123.87343182
111  49.04684050 -123.87324239
112  49.04690339 -123.87329246  49.04695912 -123.87330997
111  49.04690339 -123.87329246
111  49.04701231 -123.87332820
111  49.04707271 -123.87294279
111  49.04714700 -123.87294103
111  49.04711185 -123.87307626
111  49.04710951 -123.87318347
112  49.04714933 -123.87324422  49.04719260 -123.87324513
111  49.04714933 -123.87324422
111  49.04732825 -123.87323397
111  49.04736837 -123.87323182
111  49.04735430 -123.87344271
111  49.04731501 -123.87344299
111  49.04731446 -123.87339074
111  49.04726126 -123.87333713
111  49.04726100 -123.87344335
111  49.04721173 -123.87344367
111  49.04721207 -123.87333177
111  49.04715519 -123.87333177
112  49.04715519 -123.87333177  49.04710891 -123.87333544
111  49.04711185 -123.87340503
111  49.04710951 -123.87360337
112  49.04718447 -123.87370521  49.04726740 -123.87371530
111  49.04718447 -123.87370521
111  49.04724554 -123.87370561
111  49.04724619 -123.87394214
111  49.04714843 -123.87394184
111  49.04714816 -123.87402863
111  49.04735428 -123.87401969
111  49.04735428 -123.87407330
111  49.04714816 -123.87408581
111  49.04714816 -123.87438242
113  49.04711420 -123.87447712
110 1 0.00 0.0000 New Taxiway 6
111  49.04732824 -123.87323398
111  49.04735453 -123.87308873
111  49.04737262 -123.87293571
111  49.04743795 -123.87293417
111  49.04739184 -123.87309566
113  49.04736837 -123.87323184
110 3 0.00 0.0000 New Taxiway 1
111  49.04790044 -123.87324538
111  49.04798452 -123.87324262
111  49.04803470 -123.87324097
111  49.04814687 -123.87323729
111  49.04817072 -123.87436118
113  49.04791899 -123.87436927
110 1 0.00 0.0000 New Taxiway 7
111  49.05472917 -123.87428455
111  49.05469626 -123.87428566
111  49.05468486 -123.87279476
111  49.05464709 -123.87272117
111  49.05474780 -123.87271901
111  49.05471741 -123.87279529
111  49.05472199 -123.87337830
111  49.05476619 -123.87337923
111  49.05476623 -123.87341937
111  49.05472232 -123.87341953
111  49.05472336 -123.87354884
111  49.05476633 -123.87354853
111  49.05476641 -123.87359298
111  49.05472342 -123.87359340
111  49.05472479 -123.87373008
111  49.05476651 -123.87373017
111  49.05476654 -123.87376694
111  49.05472508 -123.87376762
111  49.05472598 -123.87388181
111  49.05476663 -123.87388174
111  49.05476668 -123.87392116
111  49.05472664 -123.87392093
111  49.05472736 -123.87405502
111  49.05476681 -123.87405464
111  49.05476684 -123.87409594
111  49.05472769 -123.87409663
111  49.05472863 -123.87421667
111  49.05476694 -123.87421627
111  49.05476698 -123.87426114
113  49.05472898 -123.87426044
110 2 0.00 0.0000 New Taxiway 13
111  49.05321670 -123.87413933
111  49.05321609 -123.87396689
111  49.05320026 -123.87392344
111  49.05324602 -123.87392354
111  49.05323367 -123.87396594
113  49.05323429 -123.87413945
110 2 0.00 0.0000 New Taxiway 12
111  49.05315195 -123.87413906
111  49.05313098 -123.87413896
111  49.05312912 -123.87394378
111  49.05311421 -123.87392322
111  49.05316419 -123.87392336
113  49.05315040 -123.87394242
110 2 0.00 0.0000 New Taxiway 11
111  49.05302194 -123.87413807
111  49.05302118 -123.87395465
111  49.05300165 -123.87392294
111  49.05308461 -123.87392315
111  49.05307002 -123.87395631
113  49.05307060 -123.87413854
110 1 0.00 0.0000 New Taxiway 6
111  49.05501275 -123.87428039
111  49.05497452 -123.87428227
111  49.05497219 -123.87417519
111  49.05492113 -123.87417553
111  49.05492110 -123.87413460
111  49.05497201 -123.87413424
111  49.05497007 -123.87400669
111  49.05492097 -123.87400730
111  49.05492094 -123.87396606
111  49.05496944 -123.87396507
111  49.05496750 -123.87383754
111  49.05492081 -123.87383865
111  49.05492078 -123.87379571
111  49.05496685 -123.87379454
111  49.05496493 -123.87366833
111  49.05492064 -123.87366929
111  49.05492060 -123.87362108
111  49.05496420 -123.87362001
111  49.05496243 -123.87350318
111  49.05492047 -123.87350382
111  49.05492043 -123.87345896
111  49.05496173 -123.87345754
111  49.05495172 -123.87279757
111  49.05491701 -123.87271536
111  49.05502357 -123.87271304
111  49.05499191 -123.87280206
111  49.05500103 -123.87345484
111  49.05504791 -123.87345442
111  49.05504784 -123.87350712
111  49.05500176 -123.87350720
111  49.05500329 -123.87361730
111  49.05504867 -123.87361665
111  49.05504804 -123.87366572
111  49.05500399 -123.87366697
111  49.05500571 -123.87379051
111  49.05504901 -123.87378912
111  49.05504814 -123.87383526
111  49.05500633 -123.87383616
111  49.05500816 -123.87396101
111  49.05504833 -123.87396023
111  49.05504875 -123.87400262
111  49.05500798 -123.87400353
111  49.05501037 -123.87412620
111  49.05504825 -123.87412674
111  49.05504895 -123.87418545
113  49.05501071 -123.87418656
110 1 0.00 0.0000 New Taxiway 5
111  49.05527831 -123.87428446
111  49.05525282 -123.87428457
111  49.05525250 -123.87425928
111  49.05520043 -123.87425920
111  49.05519986 -123.87419952
111  49.05525007 -123.87419952
111  49.05524892 -123.87408636
111  49.05519881 -123.87408697
111  49.05519820 -123.87402481
111  49.05524843 -123.87402497
111  49.05524814 -123.87391279
111  49.05519713 -123.87391234
111  49.05519655 -123.87385109
111  49.05524738 -123.87385172
111  49.05524635 -123.87377008
111  49.05519579 -123.87377031
111  49.05519530 -123.87371983
111  49.05524572 -123.87371993
111  49.05524394 -123.87357834
111  49.05519397 -123.87357932
111  49.05519356 -123.87353679
111  49.05524340 -123.87353590
111  49.05524192 -123.87341360
111  49.05519242 -123.87341602
111  49.05519198 -123.87337040
111  49.05524131 -123.87336914
111  49.05523419 -123.87280357
111  49.05519825 -123.87270933
111  49.05530085 -123.87270709
113  49.05526948 -123.87280656
110 1 0.00 0.0000 New Taxiway 3
111  49.04947076 -123.87288406
111  49.04982751 -123.87287496
111  49.04982495 -123.87293215
111  49.04981112 -123.87441015
111  49.04975719 -123.87441030
111  49.04975873 -123.87426539
111  49.04951320 -123.87426750
111  49.04951365 -123.87411089
111  49.04956971 -123.87411088
111  49.04956997 -123.87419066
111  49.04974036 -123.87419104
112  49.04974036 -123.87419104  49.04976550 -123.87418354
111  49.04976698 -123.87413638
111  49.04977046 -123.87387934
112  49.04977046 -123.87387934  49.04976827 -123.87384516
111  49.04974558 -123.87384126
111  49.04960408 -123.87384022
111  49.04960424 -123.87375784
111  49.04974506 -123.87375872
112  49.04977079 -123.87370909  49.04977243 -123.87366325
111  49.04977079 -123.87370909
111  49.04977510 -123.87317349
112  49.04968305 -123.87323709  49.04963942 -123.87330255
111  49.04968305 -123.87323709
111  49.04960316 -123.87337753
111  49.04947117 -123.87337753
113  49.04947082 -123.87295165
110 3 0.00 0.0000 New Taxiway 2
111  49.04943996 -123.87441155
111  49.04910551 -123.87441386
111  49.04910592 -123.87431713
111  49.04909635 -123.87295061
111  49.04947022 -123.87295162
111  49.04947057 -123.87337752
113  49.04943847 -123.87337713
110 1 0.00 0.0000 New Taxiway 4
111  49.05209826 -123.87438532
111  49.05209826 -123.87383002
112  49.05209826 -123.87383002  49.05209562 -123.87379108
111  49.05206526 -123.87379437
111  49.05190897 -123.87379489
111  49.05190963 -123.87352286
111  49.05203117 -123.87352286
111  49.05206125 -123.87352334
112  49.05206125 -123.87352334  49.05210964 -123.87352066
111  49.05210520 -123.87346047
111  49.05210375 -123.87333780
111  49.05215036 -123.87333592
113  49.05215557 -123.87438532
110 1 0.00 0.0000 New Taxiway 16
111  49.04803470 -123.87324099
111  49.04798453 -123.87324263
111  49.04798453 -123.87297488
111  49.04795008 -123.87292205
111  49.04805951 -123.87291945
113  49.04803213 -123.87297387
110 3 0.00 0.0000 New Taxiway 15
111  49.04905817 -123.87339559
111  49.04884222 -123.87339314
111  49.04884209 -123.87295712
113  49.04905363 -123.87295283
130 Airport Boundary 1
111  49.04121199 -123.86827766
111  49.04124622 -123.86486644
111  49.04463471 -123.86491866
111  49.04606084 -123.86698975
111  49.05345391 -123.86695363
111  49.05421832 -123.86780662
111  49.05884622 -123.86786027
111  49.05936782 -123.86793079
111  49.05987621 -123.86810208
111  49.06023274 -123.86814238
111  49.06056286 -123.86836404
111  49.06087978 -123.86837411
111  49.06091940 -123.86779981
111  49.06119010 -123.86773936
111  49.06200220 -123.86767875
111  49.06204182 -123.86750746
111  49.06507235 -123.86748717
111  49.06534965 -123.86900872
111  49.06535625 -123.86984507
111  49.06534305 -123.87017759
111  49.06527702 -123.87101394
111  49.06472902 -123.87320051
111  49.06429986 -123.87449027
111  49.06414800 -123.87335165
111  49.06259642 -123.87426859
111  49.06236534 -123.87398646
111  49.06113068 -123.87428869
111  49.05748190 -123.87452125
111  49.05748190 -123.87424139
111  49.05377412 -123.87437437
111  49.05377412 -123.87571529
111  49.05354487 -123.87609425
111  49.05327741 -123.87593684
111  49.05130966 -123.87591933
111  49.05128674 -123.87442687
111  49.04687498 -123.87451497
111  49.04663396 -123.87423160
111  49.04664060 -123.87370534
111  49.04629123 -123.87373232
111  49.04535813 -123.87243696
111  49.04524315 -123.87247744
113  49.04514586 -123.87270345
120 Linear Feature 29
111  49.05451074 -123.87140533 54
115  49.05436272 -123.87118891
120 Linear Feature 30
111  49.04596580 -123.87138594 54
115  49.04581794 -123.87162505
120 Linear Feature 44
111  49.06361943 -123.87100218 54
115  49.06345893 -123.87100373
120 Linear Feature 28
111  49.05234655 -123.87266414 1
111  49.04687222 -123.87278877
112  49.04687222 -123.87278877  49.04673337 -123.87278566 1
111  49.04666190 -123.87266105 1
111  49.04572875 -123.87128103
112  49.04572875 -123.87128103  49.04562462 -123.87103805 1
111  49.04568383 -123.87085114 1
112  49.04606567 -123.87037764  49.04640258 -123.87033091
111  49.04606567 -123.87037764 1
115  49.04657206 -123.87036518
120 Linear Feature 27
111  49.05471450 -123.87086544 1
111  49.05494595 -123.87050266 1
112  49.05540806 -123.87016391  49.05564094 -123.87015103
111  49.05540806 -123.87016391 1
115  49.05604179 -123.87014949
120 Linear Feature 26
111  49.05365895 -123.87251783 1
111  49.05471450 -123.87086544
112  49.05471450 -123.87086544  49.05480185 -123.87070414 1
111  49.05476366 -123.87044975 1
112  49.05452420 -123.87018633  49.05435342 -123.87019200
111  49.05452420 -123.87018633 1
115  49.05392277 -123.87019483
120 Linear Feature 25
111  49.05387745 -123.87262036 1
111  49.06276073 -123.87242824 1
112  49.06303700 -123.87224657  49.06313724 -123.87208226
111  49.06303700 -123.87224657 1
111  49.06345029 -123.87159185
112  49.06345029 -123.87159185  49.06354310 -123.87138221 1
111  49.06354013 -123.87119422 1
111  49.06353788 -123.87067320
112  49.06353788 -123.87067320  49.06352860 -123.87032191 1
111  49.06335595 -123.87013161 1
112  49.06307769 -123.86999513  49.06293104 -123.87000646
111  49.06307769 -123.86999513 1
115  49.06265096 -123.87000482
120 Linear Feature 29
111  49.05944541 -123.86888948 54
115  49.05951151 -123.86899012
120 Linear Feature 36
111  49.05441269 -123.87401539 20
115  49.05456072 -123.87401568
120 Linear Feature 35
111  49.05391183 -123.87432527 20
111  49.05391278 -123.87402877 20
115  49.05424046 -123.87402440
120 Linear Feature 32
111  49.05338307 -123.87339774 51
115  49.05352672 -123.87371481
120 Linear Feature 32
111  49.05295352 -123.87339987 51
115  49.05309717 -123.87371694
120 Linear Feature 32
111  49.05253095 -123.87339349 51
115  49.05267459 -123.87371056
120 Linear Feature 40
111  49.05348517 -123.87376616 20
115  49.05333766 -123.87392089
120 Linear Feature 39
111  49.05261922 -123.87369222 20
111  49.05272320 -123.87389141 20
111  49.05312101 -123.87389560 20
111  49.05313720 -123.87391493 20
111  49.05314870 -123.87389461 20
111  49.05321269 -123.87389380 20
111  49.05322563 -123.87391353 20
111  49.05323689 -123.87389556 20
111  49.05332334 -123.87389380 20
115  49.05346972 -123.87373903
120 Linear Feature 8
111  49.05375782 -123.87410534 20
111  49.05375772 -123.87393111 20
115  49.05366650 -123.87369291
120 Linear Feature 8
111  49.05379217 -123.87413483 20
111  49.05379351 -123.87393002 20
115  49.05369084 -123.87365468
120 Linear Feature 31
111  49.05262578 -123.87393825 20
111  49.05262287 -123.87342559 20
111  49.05365832 -123.87340276 20
111  49.05366037 -123.87391549 20
111  49.05271063 -123.87391994 20
115  49.05260098 -123.87371071
120 Linear Feature 4
111  49.05309510 -123.87276829 20
115  49.05304357 -123.87252692
120 Linear Feature 10
112  49.05909914 -123.86955987  49.05901153 -123.86979033 1
111  49.05888962 -123.86991152 1
112  49.05862794 -123.87004522  49.05850344 -123.87005226
111  49.05862794 -123.87004522 1
115  49.05806078 -123.87005753
120 Linear Feature 9
111  49.05960391 -123.86873851 1
111  49.05925260 -123.86928312 1
111  49.05909914 -123.86955989
112  49.05909914 -123.86955989  49.05903805 -123.86970238 1
111  49.05910002 -123.86987554 1
112  49.05926487 -123.87002842  49.05938361 -123.87003193
111  49.05926487 -123.87002842 1
115  49.05941704 -123.87002648
120 Linear Feature 7
111  49.05303081 -123.87276180 20
115  49.05310883 -123.87253244
120 Linear Feature 6
111  49.05300033 -123.87259165 20
115  49.05313736 -123.87270381
120 Linear Feature 5
111  49.05314879 -123.87261320 20
115  49.05298559 -123.87268529
120 Linear Feature 12
111  49.05754415 -123.87310707 20
111  49.05750924 -123.87310732 20
115  49.05747317 -123.87310759
120 Linear Feature 13
111  49.05750922 -123.87310722 22
115  49.05750919 -123.87265939
120 Linear Feature 7
111  49.05303081 -123.87276180 20
115  49.05310883 -123.87253244
120 Linear Feature 6
111  49.05300033 -123.87259165 20
115  49.05313736 -123.87270381
120 Linear Feature 5
111  49.05314879 -123.87261320 20
115  49.05298559 -123.87268529
120 Linear Feature 7
111  49.05303081 -123.87276180 20
115  49.05310883 -123.87253244
120 Linear Feature 6
111  49.05300033 -123.87259165 20
115  49.05313736 -123.87270381
120 Linear Feature 5
111  49.05314879 -123.87261320 20
115  49.05298559 -123.87268529
120 Linear Feature 7
111  49.05303081 -123.87276180 20
115  49.05310883 -123.87253244
120 Linear Feature 4
111  49.05300033 -123.87259165 20
115  49.05313736 -123.87270381
120 Linear Feature 5
111  49.05314879 -123.87261320 20
115  49.05298559 -123.87268529
21  49.05059227 -123.87095026 2 359.8300 3.00 PAPI Light S
21  49.06048459 -123.86933838 2 181.3200 3.00 PAPI Light N
14  49.05197457 -123.87337694 246.06 0 Tower Viewpoint
1300  49.05244403 -123.87383030 -90.22 misc jets Apron 1
1301 A none 
1300  49.05412977 -123.87339688   1.13 gate jets|turboprops Gate 03A
1301 B airline 
1300  49.05352226 -123.87370434 -52.77 gate jets|turboprops Gate 03
1301 B airline 
1300  49.05266364 -123.87368328 -52.77 gate jets|turboprops Gate 01
1301 B airline 
1300  49.05309319 -123.87370903 -52.77 gate jets|turboprops Gate 02
1301 B airline 
1300  49.04644864 -123.87321358 -41.90 gate turboprops|props Cargo 01
1301 A cargo 
1300  49.04628313 -123.87289904 -47.35 gate props Cargo 02
1301 A cargo 
1300  49.04774416 -123.87320243  -0.52 tie_down props GA 33
1301 A general_aviation 
1300  49.04774208 -123.87335437  -0.52 tie_down props GA 32
1301 A general_aviation 
1300  49.04794541 -123.87342084  -0.52 tie_down props GA 31
1301 A general_aviation 
1300  49.04794956 -123.87364876  -0.52 tie_down props GA 30
1301 A general_aviation 
1300  49.04795164 -123.87384818  -0.52 tie_down props GA 29
1301 A general_aviation 
1300  49.04795994 -123.87409509  -0.52 tie_down props GA 28
1301 A general_aviation 
1300  49.04796201 -123.87429135  -0.52 tie_down props GA 27
1301 A general_aviation 
1300  49.04811762 -123.87340818 -179.93 tie_down props GA 26
1301 A general_aviation 
1300  49.04812177 -123.87362660 -179.82 tie_down props GA 25
1301 A general_aviation 
1300  49.04812177 -123.87384818 -179.82 tie_down props GA 24
1301 A general_aviation 
1300  49.04813422 -123.87407610 -179.82 tie_down props GA 23
1301 A general_aviation 
1300  49.04813629 -123.87428819 -179.82 tie_down props GA 22
1301 A general_aviation 
1300  49.04899317 -123.87326890  -0.52 tie_down props GA 21
1301 A general_aviation 
1300  49.04921501 -123.87307353  -0.61 tie_down props GA 20
1301 A general_aviation 
1300  49.04922259 -123.87332875  -0.61 tie_down props GA 19
1301 A general_aviation 
1300  49.04922840 -123.87365512  -0.61 tie_down props GA 18
1301 A general_aviation 
1300  49.04923033 -123.87382347  -0.61 tie_down props GA 17
1301 A general_aviation 
1300  49.04922840 -123.87396229  -0.61 tie_down props GA 16
1301 A general_aviation 
1300  49.04922840 -123.87406418  -0.61 tie_down props GA 15
1301 A general_aviation 
1300  49.04923130 -123.87418971 359.39 tie_down props GA 14
1301 A general_aviation 
1300  49.04923324 -123.87434772  -0.61 tie_down props GA 13
1301 A general_aviation 
1300  49.04939234 -123.87306077 181.91 tie_down props GA 12
1301 A general_aviation 
1300  49.04939234 -123.87332394 181.91 tie_down props GA 11
1301 A general_aviation 
1300  49.04939234 -123.87348349 181.91 tie_down props GA 10
1301 A general_aviation 
1300  49.04939114 -123.87364212 181.91 tie_down props GA 09
1301 A general_aviation 
1300  49.04939114 -123.87379801 181.91 tie_down props GA 08
1301 A general_aviation 
1300  49.04939114 -123.87393005 181.91 tie_down props GA 07
1301 A general_aviation 
1300  49.04939234 -123.87406851 181.91 tie_down props GA 06
1301 A general_aviation 
1300  49.04939294 -123.87433443 181.91 tie_down props GA 05
1301 A general_aviation 
1300  49.04989884 -123.87359065 181.91 tie_down props GA 04
1301 A general_aviation 
1300  49.04989743 -123.87389768 181.91 tie_down props GA 03
1301 A general_aviation 
1300  49.04989459 -123.87431281 181.91 tie_down props GA 02
1301 A general_aviation 
1300  49.05007199 -123.87382703  89.97 tie_down props GA 01
1301 A general_aviation 
1300  49.05452362 -123.87353442 -88.57 gate turboprops Gate 03C
1301 A general_aviation 
1300  49.05438053 -123.87325478   0.00 gate turboprops Gate 03B
1301 A airline 
18  49.05218927 -123.87352635 1 BCN
19  49.04686012 -123.86921557 0 New Windsock 1
19  49.06228101 -123.87111568 0 New Windsock 1
51 12210 CTAF
55 13395 VICTORIA TRML
99
